-------------------- AST --------------------
tree block
  assign
    welcome
    literal	"Welcome"
  assign
    num
    literal	123
  assign
    num
    binary
      variable	num
      +
      literal	1
  function
    a
    b
    binary
      variable	a
      +
      variable	b
  assign
    add
    function
      a
      b
      binary
        variable	a
        +
        variable	b
  call
    variable	add
    literal	3
    literal	4
  call
    variable	print
    literal	"3 + 4 ="
    call
      variable	add
      literal	3
      literal	4
  assign
    plus
    variable	add
  call
    variable	print
    literal	"1 + 2 ="
    call
      variable	plus
      literal	1
      literal	2
  call
    variable	print
    literal	"6 * 7 ="
    call
      function
        a
        b
        binary
          variable	a
          *
          variable	b
      literal	6
      literal	7
  assign
    hello
    function
      name
      block
        call
          variable	print
          binary
            literal	"Hello "
            +
            binary
              variable	name
              +
              literal	""
        call
          variable	print
          literal	"It is good to see you..."
  call
    variable	hello
    call
      variable	input
      literal	"Who are you? "
  call
    variable	print
    literal	"(3*3) * (3*3) ="
    block
      assign
        a
        binary
          literal	3
          *
          literal	3
      binary
        variable	a
        *
        variable	a
  assign
    c
    call
      variable	add
      binary
        literal	3
        +
        literal	4
      binary
        binary
          literal	8
          *
          literal	2
        +
        binary
          literal	9
          *
          literal	3
  call
    variable	print
    literal	"c ="
    variable	c
  call
    variable	print
    if_else
      binary
        variable	c
        ==
        literal	50
      literal	"All is well"
      literal	"Incorrect"
  assign
    opt
    call
      variable	input
      literal	"Choose a or b: "
  if_else
    binary
      variable	opt
      ==
      literal	"a"
    call
      variable	print
      literal	"Apples coming up"
    if_else
      binary
        variable	opt
        ==
        literal	"b"
      call
        variable	print
        literal	"Beautiful bananas"
      call
        variable	print
        literal	"Well chosen... well chosen."
  if_else
    binary
      binary
        literal	1
        +
        literal	1
      ==
      literal	2
    block
      call
        variable	print
        literal	"The world appears to be sane."
      call
        variable	print
        literal	"Good!"


-------------------- Python --------------------
(
    (welcome := "Welcome"),
    (num := 123),
    (num := (num + 1)),
    (lambda a,b: (a + b)),
    (add := (lambda a,b: (a + b))),
    add(3,4),
    print("3 + 4 =",add(3,4)),
    (plus := add),
    print("1 + 2 =",plus(1,2)),
    print("6 * 7 =",(lambda a,b: (a * b))(6,7)),
    (hello := (lambda name: (
        print(("Hello " + (name + ""))),
        print("It is good to see you...")
    )[-1])),
    hello(input("Who are you? ")),
    print("(3*3) * (3*3) =",(
        (a := (3 * 3)),
        (a * a)
    )[-1]),
    (c := add((3 + 4),((8 * 2) + (9 * 3)))),
    print("c =",c),
    print(("All is well" if (c == 50) else "Incorrect")),
    (opt := input("Choose a or b: ")),
    (print("Apples coming up") if (opt == "a") else (print("Beautiful bananas") if (opt == "b") else print("Well chosen... well chosen."))),
    ((
        print("The world appears to be sane."),
        print("Good!")
    )[-1] if ((1 + 1) == 2) else None)
)[-1]

-------------------- Run --------------------
3 + 4 = 7
1 + 2 = 3
6 * 7 = 42
Who are you? Hello Frank
It is good to see you...
(3*3) * (3*3) = 81
c = 50
All is well
Choose a or b: Beautiful bananas
The world appears to be sane.
Good!
