----- Ping -----



----- Network Address Translation -----



----- TCP -----

1. 
2. 
3. 


----- HTTP -----

1. 
2. 
3. 


----- DNS -----

1.
2.
3.
4.


----- Network configuration -----

1. 
2. 
3. 
4. 
5. 


----- DHCP -----

